<?xml version="1.0" encoding="utf-8"?>
<!-- Generator: Adobe Illustrator 24.3.0, SVG Export Plug-In . SVG Version: 6.00 Build 0)  -->
<svg version="1.1" id="Camada_1" xmlns="http://www.w3.org/2000/svg" xmlns:xlink="http://www.w3.org/1999/xlink" x="0px" y="0px"
	 viewBox="0 0 200 42" style="enable-background:new 0 0 200 42;" xml:space="preserve">
<style type="text/css">
	.st0{fill:#FFFFFF;}
</style>
<g>
	<path class="st0" d="M5.3,6.2h4.3c4,0,5.7,1.3,5.7,3.8c0,2.2-1.8,3.7-5.3,3.7H5.3V6.2z M0,31.3h10.7c5.6,0,11.2-2,11.2-8.4
		c0-3.8-2.7-6.7-6.4-7.1v-0.1c3.1-0.9,5.1-3.1,5.1-6.5c0-5.4-4.6-7.4-9.1-7.4H0V31.3z M5.3,18.2h5.1c4.3,0,6.3,1.1,6.3,4.2
		c0,3.9-3.8,4.3-6.5,4.3H5.3V18.2z"/>
	<path class="st0" d="M25.3,1h5v30.3h-5V1z"/>
	<path class="st0" d="M38.7,21.3c0-3.1,2.2-6,5.9-6c3.7,0,5.9,2.9,5.9,6c0,3.1-2.2,6-5.9,6C40.9,27.3,38.7,24.4,38.7,21.3z
		 M33.7,21.3c0,6.3,4.8,10.5,10.9,10.5c6.1,0,10.9-4.2,10.9-10.5c0-6.3-4.8-10.5-10.9-10.5C38.5,10.7,33.7,14.9,33.7,21.3z"/>
	<path class="st0" d="M62.8,21.3c0-3.1,2.2-6,5.9-6c3.7,0,5.9,2.9,5.9,6c0,3.1-2.2,6-5.9,6C65,27.3,62.8,24.4,62.8,21.3z M57.7,21.3
		c0,6.3,4.8,10.5,10.9,10.5c6.1,0,10.9-4.2,10.9-10.5c0-6.3-4.8-10.5-10.9-10.5C62.6,10.7,57.7,14.9,57.7,21.3z"/>
	<path class="st0" d="M82.6,11.2h4.8v3.1h0.1c0.9-1.9,2.8-3.6,6.1-3.6c3.1,0,5.2,1.2,6.3,3.7c1.5-2.6,3.6-3.7,6.6-3.7
		c5.3,0,7.2,3.8,7.2,8.6v12h-5V19.9c0-2.5-0.8-4.7-3.7-4.7c-3.1,0-4.3,2.6-4.3,5.2v10.9h-5v-12c0-2.5-1-4.1-3.4-4.1
		c-3.3,0-4.6,2.4-4.6,5.1v10.9h-5V11.2z"/>
	<path class="st0" d="M134.4,21.3c0,3.1-2.2,6-5.9,6c-3.7,0-5.9-2.9-5.9-6c0-3.1,2.2-6,5.9-6C132.2,15.2,134.4,18.1,134.4,21.3z
		 M117.8,31.3h4.8v-3h0.1c1.5,2.4,4.1,3.5,6.9,3.5c6.2,0,9.9-4.6,9.9-10.5c0-5.9-4-10.5-9.7-10.5c-3.8,0-5.8,1.8-6.8,3.1h-0.1V1h-5
		V31.3z"/>
	<path class="st0" d="M146.7,19.3c0.4-2.9,2.2-4.8,5.2-4.8c3.1,0,5.1,1.8,5.1,4.8H146.7z M162,23v-1.4c0-7-3.8-10.9-9.4-10.9
		c-6.1,0-10.9,4.2-10.9,10.5c0,6.3,4.8,10.5,10.9,10.5c3.2,0,6.1-1.1,8.5-4l-3.6-2.7c-1.3,1.5-2.9,2.7-5.4,2.7
		c-2.8,0-5.1-1.8-5.4-4.8H162z"/>
	<path class="st0" d="M165.3,11.2h5v3.2h0.1c1.1-2.3,3.3-3.7,5.9-3.7c0.6,0,1.2,0.1,1.8,0.3v4.8c-0.8-0.2-1.6-0.4-2.4-0.4
		c-4.7,0-5.4,4-5.4,5.1v10.7h-5V11.2z"/>
	<path class="st0" d="M189.3,15.2c3.6,0,5.9,2.4,5.9,5.9c0,3.3-2.3,5.9-6,5.9c-3.4,0-5.9-2.6-5.9-5.8
		C183.4,17.7,185.8,15.2,189.3,15.2z M195.2,11.2v3h-0.1c-1.5-2.4-4.1-3.5-6.9-3.5c-6.2,0-9.9,4.6-9.9,10.5c0,5.7,4,10.3,10,10.3
		c2.5,0,5.1-1,6.6-2.9h0.1v1.5c0,4-1.5,6.7-6.4,6.7c-2.8,0-4.9-1-6.9-2.9l-3,4.1c2.8,2.5,6.2,3.3,9.9,3.3c7.8,0,11.3-4.6,11.3-11.8
		V11.2H195.2z"/>
</g>
</svg>
